{
	endemics:
	{
		shepherdHare:{enable: false, name:"딴길 토끼"}
		pilotHare:{enable: false, name:"길안내 토끼"}
		woodlandPteryx:{enable: false, name:"삼림 시조새"}
		forestPteryx:{enable: false, name:"고대수의 심부름꾼"}
		cobaltFlutterfly:{enable: false, name:"코발트 모포나비"}
		phantomFlutterfly:{enable: false, name:"환상 모포나비"}
		climbingJoyperch:{enable: false, name:"우는 등목어"}
		forestGekko:{enable: false, name:"숲 도마뱀붙이"}
		wildspireGecko:{enable: false, name:"개밋둑 도마뱀붙이"}
		gloomGecko:{enable: false, name:"어둠 도마뱀붙이"}
		moonlightGecko:{enable: false, name:"월광 도마뱀붙이"}
		vaporonid:{enable: false, name:"안개 무당거미"}
		scavantula:{enable: false, name:"스카벤튤라"}
		revolture:{enable: false, name:"육식조"}
		blissbill:{enable: false, name:"도원조"}
		omenfly:{enable: false, name:"징조잠자리"}
		augurfly:{enable: false, name:"길조잠자리"}
		scalebat:{enable: false, name:"비늘 박쥐"}
		goldScalebat:{enable: false, name:"금빛 비늘 박쥐"}
		dungBeetle:{enable: false, name:"쇠똥구리"}
		bombBeetle:{enable: false, name:"폭탄 바위구리"}
		downyCrake:{enable: false, name:"폭신폭신 뜸부기"}
		bristlyCrake:{enable: false, name:"뻣뻣 뜸부기"}
		hopguppy:{enable: false, name:"홋피굿피"}
		petricanths:{enable: false, name:"화석칸스"}
		paratoad:{enable: false, name:"마비두꺼비"}
		sleeptoad:{enable: false, name:"수면두꺼비"}
		nitrotoad:{enable: false, name:"니트로두꺼비"}
		wiggler:{enable: false, name:"흔들흔들"}
		wigglerQueen:{enable: false, name:"흔들흔들 퀸"}
		pinkParexus:{enable: false, name:"핑크 파렉스"}
		burstArowana:{enable: false, name:"파열 아로와나"}
		bombArowana:{enable: false, name:"폭렬 아로와나"}
		elegantCoralbird:{enable: false, name:"드레스 산호새"}
		dapperCoralbird:{enable: false, name:"턱시도 산호새"}
		andangler:{enable: false, name:"등불아귀"}
		vigorwasp:{enable: false, name:"회복 꿀벌레"}
		giantVigorwasp:{enable: false, name:"대회복 꿀벌레"}
		flyingMeduso:{enable: false, name:"하늘 해파리"}
		carrierAnt:{enable: false, name:"운반개미"}
		hercudrome:{enable: false, name:"도스헤라클레스"}
		goldHercudrome:{name:"골든 헤라클레스"}
		prismhercudrome:{name:"무지개색 도스헤라클레스"}
		emperorHopper:{enable: false, name:"황제 베짱이"}
		tyrantHopper:{enable: false, name:"폭군 베짱이"}
		grandfatherMantagrel:{enable: false, name:"옛날 만타게라"}
		ironHelmcrab:{enable: false, name:"철 투구게"}
		soldierHelmcrab:{enable: false, name:"병정 투구게"}
		emeraldHelmcrab:{enable: false, name:"에메랄드 투구게"}
		goldHelmcrab:{enable: false, name:"금박 투구게"}
		shinyGoldHelmcrab:{enable: false, name:"순금 투구게"}
		bug:{enable: false, name:"Bug"}
		whetfish:{enable: false, name:"예리어"}
		gastronomeTuna:{enable: false, name:"먹보 다랑어"}
		marlin:{enable: false, name:"대왕청새치"}
		wedgeBeetle:{enable: false, name:"쐐기 벌레"}
		goldenfish:{enable: false, name:"황금어"}
		platinumfish:{enable: false, name:"백금어"}
		goldenfry:{enable: false, name:"미니금붕어"}
		sushifish:{enable: false, name:"회어"}
		gunpowderfish:{enable: false, name:"폭약금붕어"}
		copperCalappa:{enable: false, name:"동 만두게"}
		goldCalappa:{enable: false, name:"금 만두게"}
		tsuchinoko:{enable: false, name:"환상뱀"}
		cactuarCutting:{enable: false, name:"미니텐더"}
		cactuar:{enable: false, name:"사보텐더"}
		floweringCactuarCutting:{name:"미니 꽃잎텐더"}
		nekker:{enable: false, name:"넥커"}
		pearlspringMacaque:{enable: false, name:"은천 원숭이"}
		crownedPrawn:{enable: false, name:"대신투구새우"}
		moonSlug:{enable: false, name:"달빛올리미"}
		duffelPenguin:{enable: false, name:"껴입기펭귄"}
		glassParexus:{enable: false, name:"글레스 파렉스"}
		rimeBeetle:{enable: false, name:"눈뭉치 풍뎅이"}
		sealordsCrestfish:{enable: false, name:"바다의 심부름꾼"}
		goldspringMacaque:{enable: false, name:"금천 원숭이"}
		stonebill:{enable: false, name:"경고새"}
		moly:{enable: false, name:"모그이"}
		mossyMoly:{enable: false, name:"숲모그이"}
		rockyMoly:{enable: false, name:"구멍모그이"}
		fluffyMoly:{enable: false, name:"폭신모그이"}
		spinyMoly:{enable: false, name:"바늘모그이"}
		blueDiva:{enable: false, name:"블루디바"}
		arrowheadGekko:{enable: false, name:"길잡이 도마뱀붙이"}
		wintermoonNettle:{enable: false, name:"달해파리"}
	}
}